…
Problem 9. (5 points) Among the YNP wolf packs, which one has had the highest overall persistence `persisty1` for the years represented in the data? Look this pack up online and tell me what is unique about its behavior- specifically, what prey animals does this pack specialize on?  

```r
ynp%>%
  group_by(pack)%>%
  summarize(total_persisty=sum(persisty1,na.rm = T))%>%
  arrange(desc(total_persisty))
```

```
## # A tibble: 46 × 2
##    pack        total_persisty
##    <chr>                <int>
##  1 mollies                 26
##  2 cougar                  20
##  3 yelldelta               18
##  4 druid                   13
##  5 leopold                 12
##  6 agate                   10
##  7 8mile                    9
##  8 canyon                   9
##  9 gibbon/mary              9
## 10 nezperce                 9
## # ℹ 36 more rows
```
…
Problem 10. (3 points) Perform one analysis or exploration of your choice on the `wolves` data. Your answer needs to include at least two lines of code and not be a summary function.

I'm interesting in which pack in the DENA had the highest verall persistence `persisty1` for the years between 1997 to 2007 represented in the data?

```r
wolves%>%
  filter(between(biolyr,1997,2007),park=="DENA")%>%
  group_by(pack)%>%
  summarize(total_persisty=sum(persisty1,na.rm = T))%>%
  arrange(desc(total_persisty))
```

```
## # A tibble: 38 × 2
##    pack            total_persisty
##    <chr>                    <int>
##  1 East Fork                   11
##  2 McKinley Slough              9
##  3 Kantishna River              8
##  4 Mt Margaret                  8
##  5 100 Mile                     7
##  6 Starr Lake                   7
##  7 Grant Creek                  6
##  8 Pinto Creek                  6
##  9 Straightaway                 5
## 10 Bearpaw                      4
## # ℹ 28 more rows
```
…
